<?xml version="1.0" encoding="UTF-8" standalone="no"?>
<!-- Created with Inkscape (http://www.inkscape.org/) -->

<svg
   xmlns:dc="http://purl.org/dc/elements/1.1/"
   xmlns:cc="http://creativecommons.org/ns#"
   xmlns:rdf="http://www.w3.org/1999/02/22-rdf-syntax-ns#"
   xmlns:svg="http://www.w3.org/2000/svg"
   xmlns="http://www.w3.org/2000/svg"
   xmlns:sodipodi="http://sodipodi.sourceforge.net/DTD/sodipodi-0.dtd"
   xmlns:inkscape="http://www.inkscape.org/namespaces/inkscape"
   width="1400"
   height="900"
   id="svg2"
   version="1.1"
   inkscape:version="0.92.4 (5da689c313, 2019-01-14)"
   sodipodi:docname="specimen-medialab.svg"
   inkscape:export-filename="/home/rlafuente/Dropbox/iupi/piedranave-poster/poster_espacamentos.png"
   inkscape:export-xdpi="38.484848"
   inkscape:export-ydpi="38.484848">
  <defs
     id="defs4">
    <inkscape:perspective
       sodipodi:type="inkscape:persp3d"
       inkscape:vp_x="0 : 1052.3622 : 1"
       inkscape:vp_y="0 : 1000 : 0"
       inkscape:vp_z="1488.189 : 1052.3622 : 1"
       inkscape:persp3d-origin="744.09448 : 701.57479 : 1"
       id="perspective2721" />
    <inkscape:path-effect
       is_visible="true"
       id="path-effect6670"
       effect="spiro" />
    <inkscape:path-effect
       effect="spiro"
       id="path-effect6667"
       is_visible="true" />
    <inkscape:path-effect
       is_visible="true"
       id="path-effect4739"
       effect="spiro" />
    <inkscape:path-effect
       effect="spiro"
       id="path-effect3691"
       is_visible="true" />
    <inkscape:path-effect
       is_visible="true"
       id="path-effect6670-8"
       effect="spiro" />
    <inkscape:path-effect
       effect="spiro"
       id="path-effect6667-9"
       is_visible="true" />
    <inkscape:path-effect
       is_visible="true"
       id="path-effect6670-89"
       effect="spiro" />
    <inkscape:path-effect
       effect="spiro"
       id="path-effect6667-94"
       is_visible="true" />
    <inkscape:path-effect
       is_visible="true"
       id="path-effect6670-3"
       effect="spiro" />
    <inkscape:path-effect
       effect="spiro"
       id="path-effect6667-2"
       is_visible="true" />
  </defs>
  <sodipodi:namedview
     id="base"
     pagecolor="#ffffff"
     bordercolor="#666666"
     borderopacity="1.0"
     inkscape:pageopacity="0.0"
     inkscape:pageshadow="2"
     inkscape:zoom="0.12338312"
     inkscape:cx="-2110.2738"
     inkscape:cy="1299.2539"
     inkscape:document-units="px"
     inkscape:current-layer="layer1"
     showgrid="false"
     inkscape:window-width="1278"
     inkscape:window-height="779"
     inkscape:window-x="0"
     inkscape:window-y="19"
     inkscape:window-maximized="1"
     showguides="true"
     inkscape:guide-bbox="true"
     width="0px"
     height="0px"
     fit-margin-top="0"
     fit-margin-left="0"
     fit-margin-right="0"
     fit-margin-bottom="0"
     borderlayer="false"
     inkscape:snap-page="true"
     inkscape:object-nodes="true"
     inkscape:snap-global="false" />
  <metadata
     id="metadata7">
    <rdf:RDF>
      <cc:Work
         rdf:about="">
        <dc:format>image/svg+xml</dc:format>
        <dc:type
           rdf:resource="http://purl.org/dc/dcmitype/StillImage" />
        <dc:title></dc:title>
      </cc:Work>
    </rdf:RDF>
  </metadata>
  <g
     inkscape:groupmode="layer"
     id="layer2"
     inkscape:label="base"
     transform="translate(-74.487678,644.85949)">
    <path
       style="color:#000000;display:inline;overflow:visible;visibility:visible;fill:#dfc48f;fill-opacity:1;fill-rule:nonzero;stroke:none;stroke-width:0.99151188;marker:none;enable-background:accumulate"
       d="M 74.487678,-644.85949 H 1474.4877 v 900 H 74.487678 Z"
       id="rect7728"
       inkscape:connector-curvature="0" />
  </g>
  <g
     inkscape:label="Layer 1"
     inkscape:groupmode="layer"
     id="layer1"
     transform="translate(-74.487678,644.85729)">
    <path
       inkscape:connector-curvature="0"
       style="color:#000000;display:inline;overflow:visible;visibility:visible;fill:#c1490f;fill-opacity:1;fill-rule:nonzero;stroke:none;stroke-width:1.13559413;marker:none;enable-background:accumulate"
       d="m 785.48769,-444.81241 v 639.9102 h 607.79691 v -639.9102 z"
       id="rect6378" />
    <g
       id="g4996-9"
       transform="matrix(1.7365576,0,0,1.7365576,-3153.0974,-554.0787)"
       style="fill:#dfc48f;fill-opacity:1">
      <path
         d="m 2307.4762,94.416246 h 9.4626 l 9.4625,37.850244 h -4.7313 l -1.1828,-4.73128 h -16.5595 l -1.1828,4.73128 h -4.7313 z m 3.2646,4.73128 -5.3937,23.656404 h 13.6734 l -5.3936,-23.656404 z"
         style="font-style:normal;font-variant:normal;font-weight:bold;font-stretch:normal;font-size:20px;line-height:113.46729994%;font-family:'Serreria Sobria';-inkscape-font-specification:'Serreria Sobria Bold';letter-spacing:0.72886288px;word-spacing:0px;fill:#dfc48f;fill-opacity:1;stroke:none"
         id="path4763-3"
         inkscape:connector-curvature="0" />
      <path
         d="m 2348.0036,94.416246 c 2.271,0 3.2172,0.189251 4.5893,0.757005 2.271,0.993569 4.9679,3.54846 4.9679,7.428109 0,1.98714 -0.6624,3.64309 -1.514,4.87322 0.2365,0.14194 0.4731,0.23656 0.7096,0.33119 3.3593,1.60863 7.0023,5.29903 7.0023,11.4497 0,6.00872 -3.028,9.74643 -6.0087,11.44969 -2.9807,1.65595 -5.9614,1.70326 -5.9614,1.70326 h -0.047 v 0 l -16.7014,-0.0473 v -0.0473 h -4.4947 v -33.118961 -4.73128 h 4.7312 10.5981 c 0,0 0.1893,-0.04731 0.4258,-0.04731 0.1893,0 0.3785,0 0.6624,0.04731 0.3785,-0.04731 0.7097,-0.04731 1.0409,-0.04731 z m -12.6799,4.778593 v 7.096921 h 10.5981 0.142 c 0.8516,-0.0473 4.1635,-0.0473 5.0151,-0.47313 0.9463,-0.52044 1.7033,-1.04088 1.7033,-3.21727 0,-1.98714 -0.8043,-2.41295 -2.1291,-2.980706 -0.899,-0.378502 -2.9807,-0.425815 -4.0689,-0.473128 h -0.6624 l -10.5981,0.04731 z m 0,11.780891 v 16.55948 c 0.6624,0 11.0239,0.0946 16.3703,0.14193 v 0 c 0.047,0 1.8925,0.0473 3.6904,-0.99356 1.8452,-1.04089 3.6431,-2.83877 3.6431,-7.42811 0,-4.49472 -1.9872,-6.19798 -4.2582,-7.23886 -2.271,-1.0882 -4.6366,-0.99357 -4.6366,-0.99357 v 0 h -4.0216 -0.2366 l -10.5508,-0.0473 z"
         style="font-style:normal;font-variant:normal;font-weight:bold;font-stretch:normal;font-size:20px;line-height:113.46729994%;font-family:'Serreria Sobria';-inkscape-font-specification:'Serreria Sobria Bold';letter-spacing:0.72886288px;word-spacing:0px;fill:#dfc48f;fill-opacity:1;stroke:none"
         id="path4765-6"
         inkscape:connector-curvature="0" />
      <path
         d="m 2386.2844,93.280739 c 3.6431,0 7.0969,0.993569 10.0776,2.744142 l -2.3656,4.068899 c -2.271,-1.324756 -4.9205,-2.081761 -7.712,-2.081761 -8.5636,0 -15.424,6.907671 -15.424,15.376661 0,8.5163 6.8604,15.37666 15.424,15.37666 2.7915,0 5.441,-0.75701 7.712,-2.03445 l 2.3656,4.0689 c -2.9807,1.70326 -6.4345,2.69683 -10.0776,2.69683 -11.1185,0 -20.1079,-8.98943 -20.1079,-20.10794 0,-11.0712 8.9894,-20.107941 20.1079,-20.107941 z"
         style="font-style:normal;font-variant:normal;font-weight:bold;font-stretch:normal;font-size:20px;line-height:113.46729994%;font-family:'Serreria Sobria';-inkscape-font-specification:'Serreria Sobria Bold';letter-spacing:0.72886288px;word-spacing:0px;fill:#dfc48f;fill-opacity:1;stroke:none"
         id="path4767-1"
         inkscape:connector-curvature="0" />
      <path
         d="m 2406.6129,94.368933 c 4.4001,0 8.8948,0.04731 8.9421,0.04731 h 0.047 v 0 c 8.5163,0.04731 16.8433,7.522737 16.8433,18.783187 0,11.26044 -8.0905,18.97243 -16.6541,19.06706 v 0 0 h -9.5572 -0.1892 v 0.0473 h -4.7313 V 94.416233 h 1.1828 c 1.2301,-0.04731 2.6968,-0.04731 4.1162,-0.04731 z m 0,4.73128 c -0.1892,0 -0.3785,0 -0.5204,0 v 28.482307 h 0.1419 9.5099 c 5.7722,-0.0946 11.9701,-5.34635 11.9701,-14.38309 0,-8.98943 -6.3872,-14.051904 -12.1594,-14.051904 v 0 h -0.047 c 0,0 -4.542,-0.04731 -8.8948,-0.04731 z"
         style="font-style:normal;font-variant:normal;font-weight:bold;font-stretch:normal;font-size:20px;line-height:113.46729994%;font-family:'Serreria Sobria';-inkscape-font-specification:'Serreria Sobria Bold';letter-spacing:0.72886288px;word-spacing:0px;fill:#dfc48f;fill-opacity:1;stroke:none"
         id="path4769-1"
         inkscape:connector-curvature="0" />
      <path
         d="m 2437.8308,94.416246 h 4.7312 23.6565 v 4.73128 h -23.6565 v 7.096924 h 18.9252 v 4.73128 h -18.9252 v 16.55948 h 23.6565 v 4.73128 h -28.3877 v -4.73128 -16.55948 -4.73128 -7.096924 z"
         style="font-style:normal;font-variant:normal;font-weight:bold;font-stretch:normal;font-size:20px;line-height:113.46729994%;font-family:'Serreria Sobria';-inkscape-font-specification:'Serreria Sobria Bold';letter-spacing:0.72886288px;word-spacing:0px;fill:#dfc48f;fill-opacity:1;stroke:none"
         id="path4771-7"
         inkscape:connector-curvature="0" />
      <path
         d="m 2470.9737,94.416246 h 4.7312 23.6091 v 4.73128 h -23.6091 v 7.096924 h 18.8778 v 4.73128 h -18.8778 v 21.29076 h -4.7312 v -21.29076 -4.73128 -7.096924 z"
         style="font-style:normal;font-variant:normal;font-weight:bold;font-stretch:normal;font-size:20px;line-height:113.46729994%;font-family:'Serreria Sobria';-inkscape-font-specification:'Serreria Sobria Bold';letter-spacing:0.72886288px;word-spacing:0px;fill:#dfc48f;fill-opacity:1;stroke:none"
         id="path4773-7"
         inkscape:connector-curvature="0" />
      <path
         d="m 2520.7042,92.760298 c 7.4754,0 13.9573,4.021588 17.4584,10.030312 l -4.1162,2.36564 c -2.6495,-4.58934 -7.6174,-7.664672 -13.2949,-7.664672 -8.5163,0 -15.3767,6.860352 -15.3767,15.376662 0,8.46899 6.8604,15.37666 15.3767,15.37666 5.9141,0 11.0712,-3.35921 13.6261,-8.27974 h -18.3574 v -4.73128 h 11.8282 8.0905 3.4065 v 5.29903 c -3.028,7.28617 -10.2195,12.44327 -18.5939,12.44327 -11.1185,0 -20.1079,-8.98943 -20.1079,-20.10794 0,-11.11851 8.9894,-20.107942 20.0606,-20.107942 z"
         style="font-style:normal;font-variant:normal;font-weight:bold;font-stretch:normal;font-size:20px;line-height:113.46729994%;font-family:'Serreria Sobria';-inkscape-font-specification:'Serreria Sobria Bold';letter-spacing:0.72886288px;word-spacing:0px;fill:#dfc48f;fill-opacity:1;stroke:none"
         id="path4775-8"
         inkscape:connector-curvature="0" />
      <path
         d="m 2545.0691,94.416246 h 4.7313 v 11.828204 h 21.3853 V 94.416246 h 4.684 v 37.850244 h -4.684 v -21.29076 h -21.3853 v 21.29076 h -4.7313 v -21.29076 -4.73128 z"
         style="font-style:normal;font-variant:normal;font-weight:bold;font-stretch:normal;font-size:20px;line-height:113.46729994%;font-family:'Serreria Sobria';-inkscape-font-specification:'Serreria Sobria Bold';letter-spacing:0.72886288px;word-spacing:0px;fill:#dfc48f;fill-opacity:1;stroke:none"
         id="path4777-7"
         inkscape:connector-curvature="0" />
      <path
         d="m 2581.7234,94.416246 v 37.850244 h 4.7313 V 94.416246 Z"
         style="font-style:normal;font-variant:normal;font-weight:bold;font-stretch:normal;font-size:20px;line-height:113.46729994%;font-family:'Serreria Sobria';-inkscape-font-specification:'Serreria Sobria Bold';letter-spacing:0.72886288px;word-spacing:0px;fill:#dfc48f;fill-opacity:1;stroke:none"
         id="path4779-7"
         inkscape:connector-curvature="0" />
    </g>
    <g
       id="g4986-3"
       transform="matrix(1.7365576,0,0,1.7365576,-3154.3545,-554.0787)"
       style="fill:#dfc48f;fill-opacity:1">
      <path
         d="m 2322.0485,148.1008 h 4.7313 l -0.047,9.41525 v 0 0 l -0.047,10.12494 c -0.047,4.0689 -0.9936,8.75286 -3.5012,12.63251 -2.5548,3.87965 -6.9549,6.86036 -12.9163,6.86036 -5.583,0 -9.7938,-2.6022 -12.4906,-6.10335 l 4.1635,-2.36564 c 1.8452,2.27101 4.4001,3.73771 8.3271,3.73771 4.4947,0 7.0969,-1.89251 8.9421,-4.73128 1.8452,-2.83877 2.6968,-6.76573 2.7441,-10.07763 l 0.047,-10.07762 v 0 z"
         style="font-style:normal;font-variant:normal;font-weight:bold;font-stretch:normal;font-size:20px;line-height:113.46729994%;font-family:'Serreria Sobria';-inkscape-font-specification:'Serreria Sobria Bold';letter-spacing:0.72886288px;word-spacing:0px;fill:#dfc48f;fill-opacity:1;stroke:none"
         id="path4781-0"
         inkscape:connector-curvature="0" />
      <path
         d="m 2350.469,148.14811 h 5.9614 l -13.4841,17.60036 15.5186,20.20257 h -5.9614 L 2339.5871,169.155 h -2.5076 v 16.89067 h -4.7313 v -37.85024 h 4.7313 v 14.0519 h 2.6022 l 0.1419,-0.18925 v -0.0473 0 l 10.6454,-13.86265 z"
         style="font-style:normal;font-variant:normal;font-weight:bold;font-stretch:normal;font-size:20px;line-height:113.46729994%;font-family:'Serreria Sobria';-inkscape-font-specification:'Serreria Sobria Bold';letter-spacing:0.72886288px;word-spacing:0px;fill:#dfc48f;fill-opacity:1;stroke:none"
         id="path4783-3"
         inkscape:connector-curvature="0" />
      <path
         d="m 2362.7189,148.1008 h 4.7312 v 33.11896 h 18.8779 v 4.73128 h -23.6091 z"
         style="font-style:normal;font-variant:normal;font-weight:bold;font-stretch:normal;font-size:20px;line-height:113.46729994%;font-family:'Serreria Sobria';-inkscape-font-specification:'Serreria Sobria Bold';letter-spacing:0.72886288px;word-spacing:0px;fill:#dfc48f;fill-opacity:1;stroke:none"
         id="path4785-6"
         inkscape:connector-curvature="0" />
      <path
         d="m 2393.298,148.1008 h 5.0151 l 8.4217,22.37895 8.4217,-22.37895 h 5.0625 -0.047 0.095 l 2.9807,37.85024 h -4.7313 l -2.1764,-27.58336 -7.6173,20.24988 h -3.9743 l -7.5228,-20.06063 -2.1763,27.39411 h -4.7313 l 2.9807,-37.85024 v 0 z"
         style="font-style:normal;font-variant:normal;font-weight:bold;font-stretch:normal;font-size:20px;line-height:113.46729994%;font-family:'Serreria Sobria';-inkscape-font-specification:'Serreria Sobria Bold';letter-spacing:0.72886288px;word-spacing:0px;fill:#dfc48f;fill-opacity:1;stroke:none"
         id="path4787-4"
         inkscape:connector-curvature="0" />
      <path
         d="m 2429.097,148.1008 h 4.7313 l 21.2908,22.85208 V 148.1008 h 4.7313 v 7.09692 22.8994 1.1355 5.5356 1.18282 h -4.7313 v -7.66467 l -21.2908,-22.80477 v 30.46944 h -4.7313 z"
         style="font-style:normal;font-variant:normal;font-weight:bold;font-stretch:normal;font-size:20px;line-height:113.46729994%;font-family:'Serreria Sobria';-inkscape-font-specification:'Serreria Sobria Bold';letter-spacing:0.72886288px;word-spacing:0px;fill:#dfc48f;fill-opacity:1;stroke:none"
         id="path4789-3"
         inkscape:connector-curvature="0" />
      <path
         d="m 2485.3885,146.91798 c 11.0712,0 20.1079,9.03675 20.1079,20.10794 0,11.11851 -9.0367,20.10794 -20.1079,20.10794 -11.1185,0 -20.108,-8.98943 -20.108,-20.10794 0,-11.07119 8.9895,-20.10794 20.108,-20.10794 z m 0,4.73128 c -8.5637,0 -15.424,6.90767 -15.424,15.37666 0,8.5163 6.8603,15.37666 15.424,15.37666 8.5163,0 15.4239,-6.86036 15.4239,-15.37666 0,-8.46899 -6.9076,-15.37666 -15.4239,-15.37666 z"
         style="font-style:normal;font-variant:normal;font-weight:bold;font-stretch:normal;font-size:20px;line-height:113.46729994%;font-family:'Serreria Sobria';-inkscape-font-specification:'Serreria Sobria Bold';letter-spacing:0.72886288px;word-spacing:0px;fill:#dfc48f;fill-opacity:1;stroke:none"
         id="path4791-2"
         inkscape:connector-curvature="0" />
      <path
         d="m 2524.9592,148.00617 c 3.927,0 8.3744,0.80432 12.1594,3.12265 3.7377,2.36564 6.6711,6.57648 6.6711,12.34864 0,5.72485 -2.8861,9.93569 -6.6238,12.30133 -3.7377,2.31833 -8.1851,3.12264 -12.0648,3.12264 h -9.4625 v 7.04961 h -4.7313 V 148.1008 h 1.1355 v 0 c 4.9205,-0.0946 12.9164,-0.0946 12.9164,-0.0946 z m 0,4.7786 c 0,0 -4.8732,0 -9.3206,0.0473 v 21.29076 h 9.4625 c 3.17,0 6.9077,-0.70969 9.5572,-2.36564 2.6495,-1.65595 4.3528,-4.02159 4.3528,-8.27974 0,-4.30546 -1.7506,-6.62379 -4.4001,-8.32705 -2.6968,-1.65595 -6.4345,-2.36564 -9.6518,-2.36564 z"
         style="font-style:normal;font-variant:normal;font-weight:bold;font-stretch:normal;font-size:20px;line-height:113.46729994%;font-family:'Serreria Sobria';-inkscape-font-specification:'Serreria Sobria Bold';letter-spacing:0.72886288px;word-spacing:0px;fill:#dfc48f;fill-opacity:1;stroke:none"
         id="path4793-8"
         inkscape:connector-curvature="0" />
      <path
         d="m 2568.0304,146.87067 c 0,0 0,0 0,0 0,0 0,0 0,0 v 0 c 11.0712,0 20.108,9.03674 20.108,20.10794 0,6.38723 -2.9808,12.11207 -7.6174,15.80247 0,0 0,0 0,0 -0.1893,0.0946 -0.3312,0.23657 -0.4731,0.33119 l 1.8925,3.26459 c 0,0 0,0 0,0 0,0 0,0 0,0 v 0 c 0,0 0,0 0,0 0,0 0,0 0,0 v 0 c 0,0 0,0 0,0 0,0 0,0 0,0 v 0 0 l 0.4258,0.70969 v 0 0 c 0,0 0,0 0,0 0,0 0,0.0473 0,0.0473 v -0.0473 c 0,0 0,0 0,0 0,0.0473 0,0.0473 0,0.0473 v -0.0473 c 0,0.0473 0,0.0473 0,0.0473 0,0 0,0 0,-0.0473 v 0 h -5.4883 c 0,0.0473 0,0.0473 0,0.0473 0,0 0,0 0,-0.0473 v 0 c 0,0.0473 0,0.0473 0,0.0473 0,0 0,0 0,-0.0473 v 0 c 0,0.0473 0,0.0473 0,0 0,0 0,0 0,0 v 0 l -0.9462,-1.60864 c -0.047,0.0473 -0.142,0.0473 -0.1893,0.0946 -0.047,0 -0.047,0 -0.047,0 -0.047,0.0473 -0.142,0.0473 -0.1893,0.0946 0,0 0,0 0,0 -2.3183,0.94626 -4.8732,1.41939 -7.4754,1.41939 -11.1185,0 -20.1552,-8.98943 -20.1552,-20.10794 0,-5.86679 2.5549,-11.16582 6.6238,-14.85622 v 0 c 1.0408,-0.99357 2.2237,-1.8452 3.5011,-2.55489 v 0 c 0.4258,-0.23657 0.8516,-0.47313 1.2774,-0.70969 v 0 c 0.8044,-0.37851 1.656,-0.7097 2.5076,-0.99357 v 0 c 0.3312,-0.0946 0.6151,-0.18925 0.9463,-0.28388 v 0 c 1.7032,-0.42582 3.4538,-0.70969 5.299,-0.70969 v 0 c 0,0 -0.047,0 -0.047,0 0,0 0.047,0 0.047,0 z m 0,4.73128 v 0.0473 c 0,0 0,0 0,0 0,0 -0.047,0 -0.047,0 h 0.047 c 0,0 0,0 0,0 -0.047,0 -0.047,0 -0.047,0 h 0.047 c -8.5636,0 -15.424,6.86036 -15.424,15.32935 0,8.5163 6.8604,15.37666 15.424,15.37666 1.9398,0 3.785,-0.33119 5.5356,-0.99357 l -1.6559,-2.83877 v 0 c 0,0 0,0 0,0 0,0 0,0 0,0 v 0 c 0,0 0,0 0,0 0,0 0,0 0,0 v 0 l 2.0817,-1.18282 2.0345,-1.18282 v 0 0 c 0,0 0,0 0,0 0,0 0,0 0,0 v 0 c 0,0 0,0 0,0 0,0 0,0 0,0 v 0 c 0,0 0,0 0,0 0,0 0,0 0,0 v 0 c 0,0 0,0 0,0 0,0 0,0 0,0 l 1.6559,2.83877 c 3.5012,-2.83877 5.7722,-7.14423 5.7722,-12.01745 0,-3.6904 -1.3248,-7.09692 -3.5485,-9.74644 v 0 c -1.5613,-1.89251 -3.5957,-3.40652 -5.9141,-4.40009 0,0 0,0 0,0 -1.8452,-0.757 -3.8323,-1.23013 -5.9614,-1.23013 z"
         style="font-style:normal;font-variant:normal;font-weight:bold;font-stretch:normal;font-size:20px;line-height:113.46729994%;font-family:'Serreria Sobria';-inkscape-font-specification:'Serreria Sobria Bold';letter-spacing:0.72886288px;word-spacing:0px;fill:#dfc48f;fill-opacity:1;stroke:none"
         id="path4795-3"
         inkscape:connector-curvature="0" />
    </g>
    <g
       transform="matrix(1.7365576,0,0,1.7365576,-3160.1536,-554.07869)"
       id="g5007-5"
       style="fill:#dfc48f;fill-opacity:1">
      <path
         d="m 2313.7688,201.78535 c 3.927,0 8.4217,0.99357 12.1594,3.50115 3.7377,2.50758 6.6238,6.81305 6.6238,12.58521 0,5.77216 -2.8861,10.03031 -6.6238,12.49058 -1.514,0.99356 -3.17,1.75057 -4.8732,2.27101 l 7.0969,7.09692 h -6.6711 l -6.0561,-6.05604 c -0.5677,0.0473 -1.1355,0.0946 -1.6559,0.0946 l -9.5099,0.0473 v 5.86679 h -4.7313 v -37.80293 h 3.8797 c 4.7313,-0.0946 10.3615,-0.0946 10.3615,-0.0946 z m -0.047,4.7786 c 0,0 -4.9679,0 -9.4626,0.0473 v 22.47358 l 9.4626,-0.0946 c 3.1699,0 6.9077,-0.80431 9.6045,-2.6022 2.6968,-1.75057 4.4474,-4.21084 4.4474,-8.5163 0,-4.30547 -1.7979,-6.81305 -4.4947,-8.65825 -2.6969,-1.79788 -6.3873,-2.64951 -9.5572,-2.64951 z"
         style="font-style:normal;font-variant:normal;font-weight:bold;font-stretch:normal;font-size:20px;line-height:113.46729994%;font-family:'Serreria Sobria';-inkscape-font-specification:'Serreria Sobria Bold';letter-spacing:0.72886288px;word-spacing:0px;fill:#dfc48f;fill-opacity:1;stroke:none"
         id="path4797-6"
         inkscape:connector-curvature="0" />
      <path
         d="m 2350.4048,200.50791 c -4.0216,0 -7.7593,1.18282 -10.5981,3.26458 -2.8388,2.03445 -4.8259,5.06247 -4.8259,8.56362 0,3.59577 1.7506,6.76573 4.7786,8.42168 2.6968,1.56132 6.2453,2.12907 10.5981,2.2237 v 0.0473 c 4.542,0 7.7593,0.61507 9.5098,1.60864 1.7033,0.94625 2.3184,1.93982 2.3184,4.25815 0,1.89251 -0.8043,3.45383 -2.6495,4.77859 -1.8926,1.37207 -4.9679,2.31833 -9.1787,2.31833 -5.6776,0 -9.1314,-2.17639 -10.74,-4.73128 l -4.6367,1.32476 c 2.271,4.63665 7.8066,8.1378 15.3767,8.1378 4.9205,0 8.9894,-1.0882 11.9228,-3.16996 2.8861,-2.08176 4.6367,-5.25172 4.6367,-8.65824 0,-3.54846 -1.7506,-6.71842 -4.7313,-8.37437 -2.7442,-1.56132 -6.2926,-2.12907 -10.6454,-2.2237 v -0.0473 c -4.542,0 -7.7593,-0.61507 -9.4626,-1.60864 -1.7505,-0.94625 -2.3656,-1.93982 -2.3656,-4.30546 0,-1.70326 0.9462,-3.35921 2.8861,-4.73128 1.8925,-1.41938 4.6839,-2.36564 7.8066,-2.36564 4.9205,0 7.8066,1.23013 9.5099,2.79145 0.5677,0.52045 1.0408,1.0882 1.372,1.75058 l 4.6367,-1.32476 c -0.6624,-1.41938 -1.5613,-2.79146 -2.8388,-3.97428 -2.7914,-2.46026 -6.955,-3.97427 -12.6798,-3.97427 z"
         style="font-style:normal;font-variant:normal;font-weight:bold;font-stretch:normal;font-size:20px;line-height:113.46729994%;font-family:'Serreria Sobria';-inkscape-font-specification:'Serreria Sobria Bold';letter-spacing:0.72886288px;word-spacing:0px;fill:#dfc48f;fill-opacity:1;stroke:none"
         id="path4799-9"
         inkscape:connector-curvature="0" />
      <path
         d="m 2368.4513,201.78535 h 11.8282 4.7312 11.8282 v 4.73128 h -11.8282 v 33.11896 h -4.7312 v -33.11896 h -11.8282 z"
         style="font-style:normal;font-variant:normal;font-weight:bold;font-stretch:normal;font-size:20px;line-height:113.46729994%;font-family:'Serreria Sobria';-inkscape-font-specification:'Serreria Sobria Bold';letter-spacing:0.72886288px;word-spacing:0px;fill:#dfc48f;fill-opacity:1;stroke:none"
         id="path4801-3"
         inkscape:connector-curvature="0" />
      <path
         d="m 2400.622,201.73804 4.7313,0.0946 c -0.095,4.96784 0,19.44556 0,19.44556 v 0 0 c 0,3.31189 0.8989,7.19154 2.8388,10.03031 1.8925,2.83877 4.542,4.77859 9.0367,4.77859 4.4947,0 7.0969,-1.89251 8.9421,-4.73128 1.8925,-2.83876 2.7442,-6.76573 2.7442,-10.07762 l 0.095,-10.07763 v -0.0473 -9.36794 h 4.7313 v 9.41525 0 l -0.095,10.07763 c 0,4.0689 -0.9463,8.75287 -3.5012,12.63252 -2.5076,3.87965 -6.955,6.90766 -12.9164,6.90766 -5.9614,0 -10.3615,-2.9807 -12.9637,-6.86035 -2.6022,-3.87965 -3.5958,-8.56362 -3.6431,-12.67983 v 0 c 0,-0.0473 -0.095,-14.33578 0,-19.54019 z"
         style="font-style:normal;font-variant:normal;font-weight:bold;font-stretch:normal;font-size:20px;line-height:113.46729994%;font-family:'Serreria Sobria';-inkscape-font-specification:'Serreria Sobria Bold';letter-spacing:0.72886288px;word-spacing:0px;fill:#dfc48f;fill-opacity:1;stroke:none"
         id="path4803-6"
         inkscape:connector-curvature="0" />
      <path
         d="m 2437.3672,201.78535 h 4.6839 v 0.0946 h -0.047 L 2450,234.66772 v -0.0946 l 0.095,0.33118 h 2.8861 l 3.3119,-13.95727 v 0 l 4.7786,-19.16169 h 4.6839 l -9.4625,37.85024 h -9.4626 l -9.4625,-37.85024 z"
         style="font-style:normal;font-variant:normal;font-weight:bold;font-stretch:normal;font-size:20px;line-height:113.46729994%;font-family:'Serreria Sobria';-inkscape-font-specification:'Serreria Sobria Bold';letter-spacing:0.72886288px;word-spacing:0px;fill:#dfc48f;fill-opacity:1;stroke:none"
         id="path4805-3"
         inkscape:connector-curvature="0" />
      <path
         d="m 2468.4815,201.78535 h 4.684 v 0.0946 h -0.047 l 7.9958,32.78777 v -0.0946 l 0.095,0.33118 h 2.886 l 3.3119,-13.95727 v 0 l 1.8452,-7.33349 h 0.047 l -0.047,-0.28387 h 4.5421 l 0.095,0.28387 v 0 0.0473 l 5.1098,21.00688 v -0.0946 l 0.095,0.33118 h 2.8861 l 3.3119,-13.95727 v 0 l 4.7786,-19.16169 h 4.6839 l -9.4625,37.85024 h -9.4626 l -4.2108,-16.79604 -4.2109,16.79604 h -9.4625 l -9.4626,-37.85024 z"
         style="font-style:normal;font-variant:normal;font-weight:bold;font-stretch:normal;font-size:20px;line-height:113.46729994%;font-family:'Serreria Sobria';-inkscape-font-specification:'Serreria Sobria Bold';letter-spacing:0.72886288px;word-spacing:0px;fill:#dfc48f;fill-opacity:1;stroke:none"
         id="path4807-0"
         inkscape:connector-curvature="0" />
      <path
         d="m 2518.2752,201.78535 h 5.299 l 4.6367,9.41525 h 0.047 l 1.0882,2.2237 1.0882,-2.2237 v 0 l 4.684,-9.41525 h 5.299 l -8.4217,16.9853 10.3615,20.86494 h -5.299 l -7.712,-15.56591 -7.7593,15.56591 h -5.2517 l 10.3615,-20.86494 -8.4217,-16.9853 z"
         style="font-style:normal;font-variant:normal;font-weight:bold;font-stretch:normal;font-size:20px;line-height:113.46729994%;font-family:'Serreria Sobria';-inkscape-font-specification:'Serreria Sobria Bold';letter-spacing:0.72886288px;word-spacing:0px;fill:#dfc48f;fill-opacity:1;stroke:none"
         id="path4809-8"
         inkscape:connector-curvature="0" />
      <path
         d="m 2543.1135,201.78535 h 5.9614 l 17.4584,22.71015 v -22.71015 h 4.7313 v 37.85024 h -4.7313 v -7.33348 z"
         style="font-style:normal;font-variant:normal;font-weight:bold;font-stretch:normal;font-size:20px;line-height:113.46729994%;font-family:'Serreria Sobria';-inkscape-font-specification:'Serreria Sobria Bold';letter-spacing:0.72886288px;word-spacing:0px;fill:#dfc48f;fill-opacity:1;stroke:none"
         id="path4811-1"
         inkscape:connector-curvature="0" />
      <path
         d="m 2576.2367,201.78535 h 15.9444 2.271 0.6151 v 4.7786 l -7.712,15.61322 v 0 l -6.2926,12.77446 h 13.6734 v 4.68396 h -16.0391 v 0 h -2.886 v -4.73128 l 11.7335,-23.70371 v 0 l 2.3184,-4.68397 h -13.6261 z"
         style="font-style:normal;font-variant:normal;font-weight:bold;font-stretch:normal;font-size:20px;line-height:113.46729994%;font-family:'Serreria Sobria';-inkscape-font-specification:'Serreria Sobria Bold';letter-spacing:0.72886288px;word-spacing:0px;fill:#dfc48f;fill-opacity:1;stroke:none"
         id="path4813-2"
         inkscape:connector-curvature="0" />
    </g>
    <g
       id="g5037-8"
       transform="matrix(1.7365576,0,0,1.7365576,-3163.4296,-489.24001)"
       style="fill:#dfc48f;fill-opacity:1">
      <path
         d="m 2307.6181,319.3422 -2.4129,0.0473 h -2.3183 v 0.0473 0.47313 c -0.095,4.02159 -1.8452,7.28617 -4.7313,8.94212 v 5.10978 c 1.7506,-0.66238 3.3592,-1.65595 4.7313,-2.93339 v 26.21129 h 4.7312 v -37.28249 c 0,-0.18925 0,-0.3785 0,-0.56775 0,0 0,0 0,-0.0473 z"
         style="font-style:normal;font-variant:normal;font-weight:bold;font-stretch:normal;font-size:20px;line-height:113.46729994%;font-family:'Serreria Sobria';-inkscape-font-specification:'Serreria Sobria Bold';letter-spacing:0.72886288px;word-spacing:0px;fill:#dfc48f;fill-opacity:1;stroke:none"
         id="path4829-1"
         inkscape:connector-curvature="0" />
      <path
         d="m 2327.2673,319.38951 c -0.095,0 -0.1893,0 -0.2839,0 -5.8195,0.0946 -9.6045,2.36564 -11.6863,4.8259 -2.1764,2.64952 -2.6022,5.48829 -2.6022,5.48829 l 4.7313,0.66238 c 0,0 0.1893,-1.51401 1.514,-3.12265 1.3721,-1.60863 3.7377,-3.31189 9.0368,-3.12264 9.5571,0.33119 10.6926,4.25815 10.74,6.00872 0.047,1.23014 -0.047,2.27102 -0.757,3.40653 -0.6624,1.08819 -2.0345,2.41295 -4.9679,3.78502 l -0.047,0.0473 v 0 c -0.2366,0.0946 -0.4258,0.18925 -0.6151,0.33119 -3.1699,1.27745 -7.57,3.54846 -11.4497,6.33992 -1.9871,1.46669 -3.8323,3.02802 -5.299,4.77859 -1.4194,1.75057 -2.5076,3.73771 -2.5076,6.05604 v 2.36564 l 1.1828,-0.0473 v 0.0473 h 28.3877 v -4.73128 h -23.8929 c 0.1419,-0.23657 0.3311,-0.47313 0.5204,-0.66238 1.0409,-1.27745 2.6022,-2.69683 4.4001,-3.97428 2.6495,-1.89251 5.7248,-3.64308 8.2797,-4.8259 1.7979,-0.85163 1.8452,-0.85163 2.5076,-1.13551 0.1419,-0.0946 0.3785,-0.18925 0.5678,-0.33119 v 0 c 3.5011,-1.60863 5.7248,-3.50115 7.0023,-5.58291 1.2774,-2.12907 1.4667,-4.35278 1.4193,-6.05604 -0.1419,-4.30546 -4.3054,-10.17225 -15.282,-10.55075 -0.2366,0 -0.4258,0 -0.6151,0 -0.095,-0.0473 -0.1892,0 -0.2838,0 z"
         style="font-style:normal;font-variant:normal;font-weight:bold;font-stretch:normal;font-size:20px;line-height:113.46729994%;font-family:'Serreria Sobria';-inkscape-font-specification:'Serreria Sobria Bold';letter-spacing:0.72886288px;word-spacing:0px;fill:#dfc48f;fill-opacity:1;stroke:none"
         id="path4831-4"
         inkscape:connector-curvature="0" />
      <path
         d="m 2348.1887,319.3422 v 4.73128 h 15.4712 l -11.497,8.80018 2.5549,4.4474 c 0.899,-0.14194 1.8452,-0.23656 2.8861,-0.23656 8.2324,0 11.8282,4.58934 11.8282,8.27974 0,3.73771 -3.5958,8.27974 -11.8282,8.27974 -2.6495,0 -4.7786,-0.47313 -6.5292,-1.23014 l -2.3183,4.0689 c 2.4603,1.18282 5.4883,1.89252 8.8475,1.89252 10.1249,0 16.5595,-6.24529 16.5595,-13.01102 0,-6.05604 -5.2044,-11.73358 -13.6261,-12.82177 l 11.2604,-8.46899 v -4.73128 z"
         style="font-style:normal;font-variant:normal;font-weight:bold;font-stretch:normal;font-size:20px;line-height:113.46729994%;font-family:'Serreria Sobria';-inkscape-font-specification:'Serreria Sobria Bold';letter-spacing:0.72886288px;word-spacing:0px;fill:#dfc48f;fill-opacity:1;stroke:none"
         id="path4833-3"
         inkscape:connector-curvature="0" />
      <path
         d="m 2396.306,319.3422 -18.4046,23.6564 v 4.73128 h 18.9251 v 9.46256 h 4.7313 v -18.92512 h -4.7313 v 4.73128 h -12.9637 l 18.4047,-23.6564 z"
         style="font-style:normal;font-variant:normal;font-weight:bold;font-stretch:normal;font-size:20px;line-height:113.46729994%;font-family:'Serreria Sobria';-inkscape-font-specification:'Serreria Sobria Bold';letter-spacing:0.72886288px;word-spacing:0px;fill:#dfc48f;fill-opacity:1;stroke:none"
         id="path4835-7"
         inkscape:connector-curvature="0" />
      <path
         d="m 2408.2099,319.3422 -0.5677,4.73128 -1.4667,11.78088 2.3656,4.16353 c 1.9398,-1.70326 4.9205,-2.93339 9.1314,-2.93339 8.2324,0 11.8282,4.58934 11.8282,8.27974 0,3.73771 -3.5958,8.27974 -11.8282,8.27974 -3.2173,0 -5.7249,-0.66238 -7.5701,-1.75058 l -2.3183,4.02159 c 2.6495,1.56132 6.0087,2.50758 9.8884,2.50758 10.0776,0 16.5595,-6.2926 16.5595,-13.01102 0,-6.76573 -6.4819,-13.01102 -16.5595,-13.01102 -2.3657,0 -4.4947,0.33119 -6.4346,0.94625 l 1.1355,-9.22599 h 16.4176 l 0.5677,-4.73128 h -18.7358 l -2.413,-0.0473 z"
         style="font-style:normal;font-variant:normal;font-weight:bold;font-stretch:normal;font-size:20px;line-height:113.46729994%;font-family:'Serreria Sobria';-inkscape-font-specification:'Serreria Sobria Bold';letter-spacing:0.72886288px;word-spacing:0px;fill:#dfc48f;fill-opacity:1;stroke:none"
         id="path4837-7"
         inkscape:connector-curvature="0" />
      <path
         d="m 2452.7209,318.44325 c -5.4409,0 -9.5571,3.07533 -11.9701,7.04961 -2.413,3.92696 -3.4065,8.70556 -3.4065,13.05833 v 0.0473 h -0.047 l 0.047,5.81947 v 0.0473 c 0,6.76573 6.4818,12.96371 16.5595,12.96371 10.0776,0 16.5594,-6.24529 16.5594,-13.01102 0,-6.71842 -6.4818,-13.01102 -16.5594,-13.01102 -4.7313,0 -8.7056,1.41938 -11.5444,3.59577 0.3785,-2.55489 1.2302,-5.06247 2.4603,-7.0496 1.7979,-2.98071 4.1635,-4.82591 7.9012,-4.82591 5.4883,0 8.6583,2.12908 11.5917,4.30546 l 2.8387,-3.83233 c -3.1699,-2.31833 -7.6646,-5.1571 -14.4304,-5.1571 z m 1.1829,17.7423 c 8.2324,0 11.8282,4.54203 11.8282,8.27974 0,3.6904 -3.5958,8.27974 -11.8282,8.27974 -8.2325,0 -11.8282,-4.58934 -11.8282,-8.27974 v -0.0473 c 0,-3.6904 3.643,-8.23243 11.8282,-8.23243 z"
         style="font-style:normal;font-variant:normal;font-weight:bold;font-stretch:normal;font-size:20px;line-height:113.46729994%;font-family:'Serreria Sobria';-inkscape-font-specification:'Serreria Sobria Bold';letter-spacing:0.72886288px;word-spacing:0px;fill:#dfc48f;fill-opacity:1;stroke:none"
         id="path4839-7"
         inkscape:connector-curvature="0" />
      <path
         d="m 2471.8257,319.3422 v 4.73128 h 16.5121 l -2.3183,4.73128 h -0.047 l -14.0992,28.43499 h 5.299 l 8.6583,-17.50574 v 0 l 7.7119,-15.5186 v -4.8259 h -0.4258 v 0 l -21.2907,-0.0473 z"
         style="font-style:normal;font-variant:normal;font-weight:bold;font-stretch:normal;font-size:20px;line-height:113.46729994%;font-family:'Serreria Sobria';-inkscape-font-specification:'Serreria Sobria Bold';letter-spacing:0.72886288px;word-spacing:0px;fill:#dfc48f;fill-opacity:1;stroke:none"
         id="path4841-6"
         inkscape:connector-curvature="0" />
      <path
         d="m 2510.5924,317.92281 c -6.8604,0 -11.8282,4.35278 -11.8282,9.46256 0,2.50758 1.1828,4.82591 3.17,6.57648 -4.9679,2.31833 -7.9013,6.62379 -7.9013,11.16582 0,6.76573 6.4346,13.01102 16.5595,13.01102 10.0776,0 16.5595,-6.24529 16.5595,-13.01102 0,-4.54203 -2.9807,-8.84749 -7.9486,-11.16582 1.9872,-1.75057 3.2173,-4.0689 3.2173,-6.57648 0,-5.10978 -4.9678,-9.46256 -11.8282,-9.46256 z m 0,4.73128 c 4.9678,0 7.0969,2.79146 7.0969,4.73128 0,1.98714 -2.1291,4.73128 -7.0969,4.73128 -4.9678,0 -7.0969,-2.74414 -7.0969,-4.73128 0,-1.93982 2.1291,-4.73128 7.0969,-4.73128 z m 0,14.19384 c 8.1851,0 11.8282,4.58934 11.8282,8.27974 0,3.73771 -3.6431,8.27974 -11.8282,8.27974 -8.2324,0 -11.8282,-4.54203 -11.8282,-8.27974 0,-3.6904 3.5958,-8.27974 11.8282,-8.27974 z"
         style="font-style:normal;font-variant:normal;font-weight:bold;font-stretch:normal;font-size:20px;line-height:113.46729994%;font-family:'Serreria Sobria';-inkscape-font-specification:'Serreria Sobria Bold';letter-spacing:0.72886288px;word-spacing:0px;fill:#dfc48f;fill-opacity:1;stroke:none"
         id="path4843-6"
         inkscape:connector-curvature="0" />
      <path
         d="m 2545.3559,357.52361 c 5.3937,0 9.5099,-3.07534 11.9228,-7.04961 2.413,-3.92696 3.4539,-8.70556 3.4539,-13.05833 v -0.0473 h 0.047 l -0.047,-5.86678 v 0 c -0.047,-6.76574 -6.5292,-12.96371 -16.5595,-12.96371 -10.125,0 -16.5595,6.24529 -16.5595,13.01102 0,6.71842 6.4345,13.01102 16.5595,13.01102 4.7313,0 8.6582,-1.41939 11.497,-3.59577 -0.3785,2.55489 -1.1828,5.06246 -2.413,7.0496 -1.7979,2.98071 -4.2108,4.82591 -7.9485,4.82591 -5.441,0 -8.6109,-2.12908 -11.5917,-4.30547 l -2.7914,3.83234 c 3.1226,2.31833 7.6647,5.1571 14.4304,5.1571 z m -1.2301,-17.7423 c -8.1852,0 -11.8282,-4.54203 -11.8282,-8.27974 0,-3.6904 3.643,-8.27974 11.8282,-8.27974 8.2324,0 11.8282,4.58934 11.8282,8.27974 v 0.0473 c 0,3.6904 -3.5958,8.23243 -11.8282,8.23243 z"
         style="font-style:normal;font-variant:normal;font-weight:bold;font-stretch:normal;font-size:20px;line-height:113.46729994%;font-family:'Serreria Sobria';-inkscape-font-specification:'Serreria Sobria Bold';letter-spacing:0.72886288px;word-spacing:0px;fill:#dfc48f;fill-opacity:1;stroke:none"
         id="path4845-5"
         inkscape:connector-curvature="0" />
      <path
         d="m 2584.1044,317.92282 c -11.1185,0 -20.1079,9.03674 -20.1079,20.10794 0,11.1185 8.9894,20.10794 20.1079,20.10794 11.0712,0 20.1079,-8.98944 20.1079,-20.10794 0,-11.0712 -9.0367,-20.10794 -20.1079,-20.10794 z m 0,4.73128 c 8.5163,0 15.424,6.90766 15.424,15.37666 0,8.5163 -6.9077,15.37667 -15.424,15.37667 -8.5636,0 -15.424,-6.86037 -15.424,-15.37667 0,-8.469 6.8604,-15.37666 15.424,-15.37666 z"
         style="font-style:normal;font-variant:normal;font-weight:bold;font-stretch:normal;font-size:20px;line-height:113.46729994%;font-family:'Serreria Sobria';-inkscape-font-specification:'Serreria Sobria Bold';letter-spacing:0.72886288px;word-spacing:0px;fill:#dfc48f;fill-opacity:1;stroke:none"
         id="path4847-4"
         inkscape:connector-curvature="0" />
    </g>
    <g
       id="g5142-3"
       transform="matrix(1.7365576,0,0,1.7365576,-3125.4224,-510.07867)"
       style="fill:#dfc48f;fill-opacity:1">
      <g
         id="flowRoot5049-0"
         style="font-style:normal;font-weight:bold;font-size:40px;line-height:113.46729994%;font-family:'Times New Roman';-inkscape-font-specification:'Sans Bold';letter-spacing:0px;word-spacing:0px;fill:#dfc48f;stroke:none"
         transform="matrix(2.36564,0,0,2.36564,2191.3781,244.336)">
        <path
           inkscape:connector-curvature="0"
           id="path6591"
           style="font-variant:normal;font-stretch:normal;font-size:20px;font-family:'Serreria Sobria';-inkscape-font-specification:'Serreria Sobria Bold';letter-spacing:0.72886288px;fill:#dfc48f"
           d="m 45.83625,14.15099 c 4.36,0 8,3.4 8,7.98 v 0.1 l -0.02,0.1 -0.1,0.48 c -0.18,0.88 -0.54,1.58 -1.04,2.06 -0.52,0.46 -1.18,0.64 -1.74,0.66 -0.54,0 -1.02,-0.12 -1.4,-0.28 -0.2,-0.08 -0.36,-0.16 -0.5,-0.26 -0.14,-0.08 -0.26,-0.14 -0.44,-0.36 -0.1,-0.12 -0.2,-0.26 -0.3,-0.4 -0.6,0.58 -1.52,1 -2.78,1.04 v 0.02 h -0.02 c -0.62,0 -1.18,-0.22 -1.74,-0.62 -0.54,-0.38 -1.04,-1.08 -1.06,-1.96 -0.02,-1.02 0.44,-1.92 1.1,-2.4 0.64,-0.5 1.38,-0.66 2.02,-0.66 0.04,0 0.08,0.02 0.12,0.02 -0.26,-0.42 -0.46,-0.68 -0.58,-0.74 l 1,-1.76 c 1.16,0.68 1.6,1.9 2.12,3.08 0.52,1.16 1.04,2.34 1.6,3.04 0.06,0.02 0.14,0.06 0.22,0.1 0.18,0.08 0.42,0.14 0.62,0.14 0.18,0 0.28,-0.04 0.4,-0.16 0.14,-0.1 0.32,-0.36 0.44,-0.96 l 0.06,-0.36 c -0.04,-3.5 -2.66,-5.9 -5.98,-5.9 -3.34,0 -6,2.66 -6,6 0,3.32 2.64,5.64 6.02,5.64 0.82,0 1.94,-0.24 2.82,-0.6 0.9,-0.38 1.5,-0.96 1.54,-1.06 l 1.86,0.74 c -0.46,1.14 -1.5,1.7 -2.64,2.16 -1.12,0.46 -2.4,0.76 -3.58,0.76 -4.34,0 -8.04,-3.24 -8.04,-7.64 0,-4.42 3.6,-8 8.02,-8 z m -0.02,7.5 c -0.28,0 -0.62,0.1 -0.82,0.24 -0.18,0.14 -0.32,0.28 -0.3,0.8 0,0.14 0.06,0.24 0.26,0.38 0.18,0.14 0.48,0.2 0.52,0.2 1.68,-0.06 1.54,-0.94 1.58,-0.72 l -0.02,-0.04 v -0.06 c 0,0 -0.04,-0.26 -0.2,-0.44 -0.16,-0.18 -0.4,-0.36 -1.02,-0.36 z" />
      </g>
      <path
         d="m 2361.5461,277.31536 v 4.73128 h 8.2797 v 28.38768 h -8.2797 v 4.73129 h 8.2797 4.7313 8.2797 v -4.73129 h -8.2797 v -28.38768 h 8.2797 v -4.73128 h -8.2797 -4.7313 z"
         style="font-style:normal;font-variant:normal;font-weight:bold;font-stretch:normal;font-size:20px;line-height:135.00000238%;font-family:'Serreria Sobria';-inkscape-font-specification:'Serreria Sobria Bold';letter-spacing:0.72886288px;word-spacing:0px;fill:#dfc48f;fill-opacity:1;stroke:none"
         id="path4815-8"
         inkscape:connector-curvature="0" />
      <path
         d="m 2416.9304,277.31536 v 0.0946 h -0.047 l -11.7809,24.79191 -11.7336,-24.69728 h -0.047 v -0.14194 h -4.7313 v 37.70831 h 4.7313 v -26.16399 l 9.1314,18.97243 h 5.3463 l -0.047,-0.0946 h 0.047 l 9.1314,-19.06706 v 26.35324 h 4.7786 v -37.75563 h -4.7786 z"
         style="font-style:normal;font-variant:normal;font-weight:bold;font-stretch:normal;font-size:20px;line-height:135.00000238%;font-family:'Serreria Sobria';-inkscape-font-specification:'Serreria Sobria Bold';letter-spacing:0.72886288px;word-spacing:0px;fill:#dfc48f;fill-opacity:1;stroke:none"
         id="path4817-2"
         inkscape:connector-curvature="0" />
      <path
         d="m 2425.7138,277.31536 8.8948,37.80294 v 0.0473 h 0.047 4.8259 0.047 l -0.047,-0.0473 8.9421,-37.80294 h -4.8732 l -6.4819,27.53605 -6.5292,-27.53605 h -4.8259 z"
         style="font-style:normal;font-variant:normal;font-weight:bold;font-stretch:normal;font-size:20px;line-height:135.00000238%;font-family:'Serreria Sobria';-inkscape-font-specification:'Serreria Sobria Bold';letter-spacing:0.72886288px;word-spacing:0px;fill:#dfc48f;fill-opacity:1;stroke:none"
         id="path4819-9"
         inkscape:connector-curvature="0" />
      <path
         d="m 2451.0043,277.31536 2.9807,37.85025 v 0 0.0473 h 5.0151 l 8.4217,-22.37896 8.4217,22.37896 h 5.0625 l -0.047,-0.0473 h 0.095 l 2.9807,-37.85025 h -4.7313 l -2.1764,27.63068 -7.6173,-20.24988 h -1.5614 -2.4129 l -7.5228,20.06063 -2.1763,-27.44143 h -4.7313 z"
         style="font-style:normal;font-variant:normal;font-weight:bold;font-stretch:normal;font-size:20px;line-height:135.00000238%;font-family:'Serreria Sobria';-inkscape-font-specification:'Serreria Sobria Bold';letter-spacing:0.72886288px;word-spacing:0px;fill:#dfc48f;fill-opacity:1;stroke:none"
         id="path4821-8"
         inkscape:connector-curvature="0" />
      <path
         d="m 2486.5475,277.31536 22.0478,37.99219 h 5.5829 l -22.0477,-37.99219 z m 0,37.99219 h 5.583 l 22.0477,-37.99219 h -5.5829 z"
         style="font-style:normal;font-variant:normal;font-weight:bold;font-stretch:normal;font-size:20px;line-height:135.00000238%;font-family:'Serreria Sobria';-inkscape-font-specification:'Serreria Sobria Bold';letter-spacing:0.72886288px;word-spacing:0px;fill:#dfc48f;fill-opacity:1;stroke:none"
         id="path4823-5"
         inkscape:connector-curvature="0" />
      <path
         d="m 2516.97,277.31536 11.3077,19.68213 h 0.047 v 18.26275 h 4.7313 v -18.26275 0 l 11.3551,-19.68213 h -5.4883 l -8.1851,14.14653 h -0.095 l -8.1852,-14.14653 h -5.4882 z"
         style="font-style:normal;font-variant:normal;font-weight:bold;font-stretch:normal;font-size:20px;line-height:135.00000238%;font-family:'Serreria Sobria';-inkscape-font-specification:'Serreria Sobria Bold';letter-spacing:0.72886288px;word-spacing:0px;fill:#dfc48f;fill-opacity:1;stroke:none"
         id="path4825-4"
         inkscape:connector-curvature="0" />
      <path
         d="m 2568.1087,277.31536 v 0.0473 h -21.0069 v 4.73128 h 17.9316 l -17.9316,27.81992 v 0.56776 0 4.73128 h 23.7037 v -4.73128 h -18.4993 l 18.4047,-28.38768 v 0 -0.0473 l 0.047,-0.0473 v -4.63665 l -2.6495,-0.0473 z"
         style="font-style:normal;font-variant:normal;font-weight:bold;font-stretch:normal;font-size:20px;line-height:135.00000238%;font-family:'Serreria Sobria';-inkscape-font-specification:'Serreria Sobria Bold';letter-spacing:0.72886288px;word-spacing:0px;fill:#dfc48f;fill-opacity:1;stroke:none"
         id="path4827-5"
         inkscape:connector-curvature="0" />
      <path
         d="m 2323.7893,277.38633 v 37.85024 h 4.7312 v -30.84795 l 21.2908,22.80477 v 8.04318 h 4.7313 v -1.18282 -5.5356 -1.13551 -22.99402 h -4.7313 v 15.84979 l -21.2908,-22.85208 z m 12.1594,0 v 4.73128 h 18.5939 v -4.73128 z"
         style="font-style:normal;font-variant:normal;font-weight:bold;font-stretch:normal;font-size:20px;line-height:113.46729994%;font-family:'Serreria Sobria';-inkscape-font-specification:'Serreria Sobria Bold';letter-spacing:0.72886288px;word-spacing:0px;fill:#dfc48f;fill-opacity:1;stroke:none"
         id="path5075-6"
         inkscape:connector-curvature="0" />
    </g>
    <path
       d="m 771.27698,-72.194109 h 624.00762 v -20 H 771.27698 Z"
       style="font-style:normal;font-variant:normal;font-weight:bold;font-stretch:normal;font-size:20px;line-height:113.46729994%;font-family:'Serreria Sobria';-inkscape-font-specification:'Serreria Sobria Bold';letter-spacing:0.72886288px;word-spacing:0px;fill:#dfc48f;fill-opacity:1;stroke:none;stroke-width:1.7365576"
       id="path4779-0-0"
       inkscape:connector-curvature="0" />
    <g
       id="g1589"
       transform="translate(89.869247,180)">
      <g
         id="flowRoot6953"
         style="color:#000000;font-style:normal;font-weight:bold;font-size:40px;line-height:125%;font-family:'Times New Roman';-inkscape-font-specification:'Sans Bold';letter-spacing:0px;word-spacing:0px;display:inline;overflow:visible;visibility:visible;fill:#c1490f;fill-opacity:1;fill-rule:nonzero;stroke:none;stroke-width:7.99000025;marker:none;enable-background:accumulate"
         transform="matrix(2.9781017,0,0,2.9781017,9.5428519,-808.37041)">
        <path
           inkscape:connector-curvature="0"
           id="path6573"
           style="color:#000000;font-variant:normal;font-stretch:normal;font-family:'Serreria Sobria';-inkscape-font-specification:'Serreria Sobria Bold';display:inline;overflow:visible;visibility:visible;fill:#c1490f;stroke-width:7.99000025;marker:none;enable-background:accumulate"
           d="m 51.83625,17.799464 c -3.4,0 -6.56,1 -8.96,2.76 -2.4,1.72 -4.08,4.28 -4.08,7.24 0,3.04 1.48,5.72 4.04,7.12 2.28,1.32 5.28,1.8 8.96,1.88 v 0.04 c 3.84,0 6.56,0.52 8.04,1.36 1.44,0.8 1.96,1.64 1.96,3.6 0,1.6 -0.68,2.92 -2.24,4.04 -1.6,1.16 -4.2,1.96 -7.76,1.96 -4.8,0 -7.72,-1.84 -9.08,-4 l -3.92,1.12 c 1.92,3.92 6.6,6.88 13,6.88 4.16,0 7.6,-0.92 10.08,-2.68 2.44,-1.76 3.92,-4.44 3.92,-7.32 0,-3 -1.48,-5.68 -4,-7.08 -2.32,-1.32 -5.32,-1.8 -9,-1.88 v -0.04 c -3.84,0 -6.56,-0.52 -8,-1.36 -1.48,-0.8 -2,-1.64 -2,-3.64 0,-1.44 0.8,-2.84 2.44,-4 1.6,-1.2 3.96,-2 6.6,-2 4.16,0 6.6,1.04 8.04,2.36 0.48,0.44 0.88,0.92 1.16,1.48 l 3.92,-1.12 c -0.56,-1.2 -1.32,-2.36 -2.4,-3.36 -2.36,-2.08 -5.88,-3.36 -10.72,-3.36 z" />
        <path
           inkscape:connector-curvature="0"
           id="path6575"
           style="color:#000000;font-variant:normal;font-stretch:normal;font-family:'Serreria Sobria';-inkscape-font-specification:'Serreria Sobria Bold';display:inline;overflow:visible;visibility:visible;fill:#c1490f;stroke-width:7.99000025;marker:none;enable-background:accumulate"
           d="m 69.18875,18.879464 h 4 20 v 4 h -20 v 6 h 16 v 4 h -16 v 14 h 20 v 4 h -24 v -4 -14 -4 -6 z" />
        <path
           inkscape:connector-curvature="0"
           id="path6577"
           style="color:#000000;font-variant:normal;font-stretch:normal;font-family:'Serreria Sobria';-inkscape-font-specification:'Serreria Sobria Bold';display:inline;overflow:visible;visibility:visible;fill:#c1490f;stroke-width:7.99000025;marker:none;enable-background:accumulate"
           d="m 107.75125,18.879464 c 3.32,0 7.12,0.84 10.28,2.96 3.16,2.12 5.6,5.76 5.6,10.64 0,4.88 -2.44,8.48 -5.6,10.56 -1.28,0.84 -2.68,1.48 -4.12,1.92 l 6,6 h -5.64 l -5.12,-5.12 c -0.48,0.04 -0.96,0.08 -1.4,0.08 l -8.04,0.04 v 4.96 h -4 v -31.96 h 3.28 c 4,-0.08 8.76,-0.08 8.76,-0.08 z m -0.04,4.04 c 0,0 -4.2,0 -8,0.04 v 19 l 8,-0.08 c 2.68,0 5.84,-0.68 8.12,-2.2 2.28,-1.48 3.76,-3.56 3.76,-7.2 0,-3.64 -1.52,-5.76 -3.8,-7.32 -2.28,-1.52 -5.4,-2.24 -8.08,-2.24 z" />
        <path
           inkscape:connector-curvature="0"
           id="path6579"
           style="color:#000000;font-variant:normal;font-stretch:normal;font-family:'Serreria Sobria';-inkscape-font-specification:'Serreria Sobria Bold';display:inline;overflow:visible;visibility:visible;fill:#c1490f;stroke-width:7.99000025;marker:none;enable-background:accumulate"
           d="m 138.22,18.879464 c 3.32,0 7.12,0.84 10.28,2.96 3.16,2.12 5.6,5.76 5.6,10.64 0,4.88 -2.44,8.48 -5.6,10.56 -1.28,0.84 -2.68,1.48 -4.12,1.92 l 6,6 h -5.64 l -5.12,-5.12 c -0.48,0.04 -0.96,0.08 -1.4,0.08 l -8.04,0.04 v 4.96 h -4 v -31.96 h 3.28 c 4,-0.08 8.76,-0.08 8.76,-0.08 z m -0.04,4.04 c 0,0 -4.2,0 -8,0.04 v 19 l 8,-0.08 c 2.68,0 5.84,-0.68 8.12,-2.2 2.28,-1.48 3.76,-3.56 3.76,-7.2 0,-3.64 -1.52,-5.76 -3.8,-7.32 -2.28,-1.52 -5.4,-2.24 -8.08,-2.24 z" />
        <path
           inkscape:connector-curvature="0"
           id="path6581"
           style="color:#000000;font-variant:normal;font-stretch:normal;font-family:'Serreria Sobria';-inkscape-font-specification:'Serreria Sobria Bold';display:inline;overflow:visible;visibility:visible;fill:#c1490f;stroke-width:7.99000025;marker:none;enable-background:accumulate"
           d="m 156.68875,18.879464 h 4 20 v 4 h -20 v 6 h 16 v 4 h -16 v 14 h 20 v 4 h -24 v -4 -14 -4 -6 z" />
        <path
           inkscape:connector-curvature="0"
           id="path6583"
           style="color:#000000;font-variant:normal;font-stretch:normal;font-family:'Serreria Sobria';-inkscape-font-specification:'Serreria Sobria Bold';display:inline;overflow:visible;visibility:visible;fill:#c1490f;stroke-width:7.99000025;marker:none;enable-background:accumulate"
           d="m 195.25125,18.879464 c 3.32,0 7.12,0.84 10.28,2.96 3.16,2.12 5.6,5.76 5.6,10.64 0,4.88 -2.44,8.48 -5.6,10.56 -1.28,0.84 -2.68,1.48 -4.12,1.92 l 6,6 h -5.64 l -5.12,-5.12 c -0.48,0.04 -0.96,0.08 -1.4,0.08 l -8.04,0.04 v 4.96 h -4 v -31.96 h 3.28 c 4,-0.08 8.76,-0.08 8.76,-0.08 z m -0.04,4.04 c 0,0 -4.2,0 -8,0.04 v 19 l 8,-0.08 c 2.68,0 5.84,-0.68 8.12,-2.2 2.28,-1.48 3.76,-3.56 3.76,-7.2 0,-3.64 -1.52,-5.76 -3.8,-7.32 -2.28,-1.52 -5.4,-2.24 -8.08,-2.24 z" />
        <path
           inkscape:connector-curvature="0"
           id="path6585"
           style="color:#000000;font-variant:normal;font-stretch:normal;font-family:'Serreria Sobria';-inkscape-font-specification:'Serreria Sobria Bold';display:inline;overflow:visible;visibility:visible;fill:#c1490f;stroke-width:7.99000025;marker:none;enable-background:accumulate"
           d="m 218.64,9.4794643 h -3 l -1.52,5.9999997 h 3.16 z m -4.92,9.3999997 v 32 h 4 v -32 z" />
        <path
           inkscape:connector-curvature="0"
           id="path6587"
           style="color:#000000;font-variant:normal;font-stretch:normal;font-family:'Serreria Sobria';-inkscape-font-specification:'Serreria Sobria Bold';display:inline;overflow:visible;visibility:visible;fill:#c1490f;stroke-width:7.99000025;marker:none;enable-background:accumulate"
           d="m 226.88437,18.879464 h 8 l 8,32 h -4 l -1,-4 h -14 l -1,4 h -4 z m 2.76,4 -4.56,20 h 11.56 l -4.56,-20 z" />
      </g>
      <g
         id="flowRoot3506"
         style="color:#000000;font-style:normal;font-weight:bold;font-size:34.18091202px;line-height:125%;font-family:'Times New Roman';-inkscape-font-specification:'Sans Bold';letter-spacing:0px;word-spacing:0px;display:inline;overflow:visible;visibility:visible;fill:#1d150d;fill-opacity:1;fill-rule:nonzero;stroke:none;stroke-width:2.73489499;marker:none;enable-background:accumulate"
         transform="matrix(3.4769255,0,0,3.4769255,638.81677,-814.50548)">
        <path
           inkscape:connector-curvature="0"
           id="path6529"
           style="color:#000000;font-variant:normal;font-stretch:normal;font-family:'Serreria Sobria';-inkscape-font-specification:'Serreria Sobria Bold';display:inline;overflow:visible;visibility:visible;fill:#1d150d;stroke-width:2.73489499;marker:none;enable-background:accumulate"
           d="m 49.700645,17.010328 c -2.905378,0 -5.60567,0.854523 -7.656525,2.358483 -2.050854,1.46978 -3.486453,3.657358 -3.486453,6.186745 0,2.59775 1.264694,4.887871 3.452273,6.084203 1.948311,1.12797 4.51188,1.538141 7.656524,1.606503 v 0.03418 c 3.281367,0 5.605669,0.444351 6.870363,1.162151 1.230513,0.683618 1.674865,1.401417 1.674865,3.076282 0,1.367236 -0.581076,2.495206 -1.914131,3.452272 -1.367237,0.991246 -3.588996,1.674864 -6.631097,1.674864 -4.10171,0 -6.596916,-1.572322 -7.759067,-3.418091 l -3.34973,0.957066 c 1.640684,3.349729 5.639851,5.879117 11.108797,5.879117 3.554815,0 6.494373,-0.786161 8.61359,-2.290121 2.085035,-1.503961 3.349729,-3.794082 3.349729,-6.255107 0,-2.563569 -1.264694,-4.85369 -3.418091,-6.050022 -1.982493,-1.12797 -4.546061,-1.538141 -7.690705,-1.606503 v -0.03418 c -3.281368,0 -5.60567,-0.444351 -6.836183,-1.162151 -1.264694,-0.683618 -1.709045,-1.401417 -1.709045,-3.110463 0,-1.230512 0.683618,-2.426844 2.085035,-3.418091 1.367237,-1.025427 3.383911,-1.709045 5.639851,-1.709045 3.554815,0 5.63985,0.888703 6.870363,2.016673 0.410171,0.37599 0.75198,0.786161 0.991246,1.264694 l 3.34973,-0.957065 c -0.478533,-1.025428 -1.12797,-2.016674 -2.050855,-2.871197 -2.016674,-1.777407 -5.024594,-2.871197 -9.160484,-2.871197 z" />
        <path
           inkscape:connector-curvature="0"
           id="path6531"
           style="color:#000000;font-variant:normal;font-stretch:normal;font-family:'Serreria Sobria';-inkscape-font-specification:'Serreria Sobria Bold';display:inline;overflow:visible;visibility:visible;fill:#1d150d;stroke-width:2.73489499;marker:none;enable-background:accumulate"
           d="m 78.782193,17.07869 c 7.998333,0 14.526887,6.528554 14.526887,14.526888 0,8.032514 -6.528554,14.526887 -14.526887,14.526887 -8.032514,0 -14.526888,-6.494373 -14.526888,-14.526887 0,-7.998334 6.494374,-14.526888 14.526888,-14.526888 z m 0,3.418091 c -6.186745,0 -11.142977,4.990414 -11.142977,11.108797 0,6.152564 4.956232,11.108796 11.142977,11.108796 6.152564,0 11.142977,-4.956232 11.142977,-11.108796 0,-6.118383 -4.990413,-11.108797 -11.142977,-11.108797 z" />
        <path
           inkscape:connector-curvature="0"
           id="path6533"
           style="color:#000000;font-variant:normal;font-stretch:normal;font-family:'Serreria Sobria';-inkscape-font-specification:'Serreria Sobria Bold';display:inline;overflow:visible;visibility:visible;fill:#1d150d;stroke-width:2.73489499;marker:none;enable-background:accumulate"
           d="m 108.5511,17.933213 c 1.64068,0 2.3243,0.136724 3.31555,0.546895 1.64068,0.717799 3.58899,2.563568 3.58899,5.366403 0,1.435598 -0.47853,2.63193 -1.09379,3.520634 0.17091,0.102542 0.34181,0.170904 0.51272,0.239266 2.42684,1.162151 5.05877,3.828262 5.05877,8.271781 0,4.340976 -2.18758,7.041268 -4.34097,8.271781 -2.1534,1.196331 -4.3068,1.230512 -4.3068,1.230512 h -0.0342 v 0 l -12.065862,-0.03418 v -0.03418 H 95.938321 V 21.385486 17.967395 h 3.418091 7.656528 c 0,0 0.13672,-0.03418 0.30762,-0.03418 0.13673,0 0.27345,0 0.47854,0.03418 0.27344,-0.03418 0.51271,-0.03418 0.75198,-0.03418 z m -9.160487,3.452272 v 5.127137 h 7.656527 0.10254 c 0.61526,-0.03418 3.00792,-0.03418 3.62318,-0.341809 0.68362,-0.37599 1.23051,-0.75198 1.23051,-2.324302 0,-1.435598 -0.58108,-1.743227 -1.53814,-2.153398 -0.64944,-0.273447 -2.1534,-0.307628 -2.93956,-0.341809 h -0.47853 l -7.656527,0.03418 z m 0,8.511047 v 11.963319 c 0.478533,0 7.964157,0.06836 11.826597,0.102543 v 0 c 0.0342,0 1.36724,0.03418 2.66611,-0.717799 1.33306,-0.75198 2.63193,-2.050855 2.63193,-5.366403 0,-3.247187 -1.4356,-4.4777 -3.07628,-5.22968 -1.64069,-0.786161 -3.34973,-0.717799 -3.34973,-0.717799 v 0 h -2.90538 -0.1709 z" />
        <path
           inkscape:connector-curvature="0"
           id="path6535"
           style="color:#000000;font-variant:normal;font-stretch:normal;font-family:'Serreria Sobria';-inkscape-font-specification:'Serreria Sobria Bold';display:inline;overflow:visible;visibility:visible;fill:#1d150d;stroke-width:2.73489499;marker:none;enable-background:accumulate"
           d="m 132.59683,17.933213 c 2.83702,0 6.08421,0.717799 8.7845,2.529388 2.70029,1.811588 4.78532,4.922051 4.78532,9.092122 0,4.170071 -2.08503,7.246353 -4.78532,9.023761 -1.09379,0.717799 -2.29012,1.264694 -3.52064,1.640684 l 5.12714,5.127136 h -4.81951 l -4.37516,-4.375156 c -0.41017,0.03418 -0.82034,0.06836 -1.19633,0.06836 l -6.87036,0.03418 v 4.238434 h -3.41809 V 18.001573 h 2.80283 c 3.41809,-0.06836 7.48562,-0.06836 7.48562,-0.06836 z m -0.0342,3.452272 c 0,0 -3.58899,0 -6.83618,0.03418 v 16.235933 l 6.83618,-0.06836 c 2.29012,0 4.99041,-0.581075 6.93873,-1.87995 1.94831,-1.264693 3.213,-3.042101 3.213,-6.152564 0,-3.110463 -1.29887,-4.922051 -3.24718,-6.255107 -1.94832,-1.298874 -4.61443,-1.914131 -6.90455,-1.914131 z" />
        <path
           inkscape:connector-curvature="0"
           id="path6537"
           style="color:#000000;font-variant:normal;font-stretch:normal;font-family:'Serreria Sobria';-inkscape-font-specification:'Serreria Sobria Bold';display:inline;overflow:visible;visibility:visible;fill:#1d150d;stroke-width:2.73489499;marker:none;enable-background:accumulate"
           d="m 148.37881,17.933213 v 27.34473 h 3.41809 v -27.34473 z" />
        <path
           inkscape:connector-curvature="0"
           id="path6539"
           style="color:#000000;font-variant:normal;font-stretch:normal;font-family:'Serreria Sobria';-inkscape-font-specification:'Serreria Sobria Bold';display:inline;overflow:visible;visibility:visible;fill:#1d150d;stroke-width:2.73489499;marker:none;enable-background:accumulate"
           d="m 160.42917,17.933213 h 6.83619 l 6.83618,27.34473 h -3.41809 l -0.85453,-3.418092 h -11.96331 l -0.85453,3.418092 h -3.41809 z m 2.35849,3.418091 -3.89663,17.090456 h 9.87829 l -3.89663,-17.090456 z" />
      </g>
    </g>
    <g
       id="g1953"
       transform="translate(4.00001)">
      <path
         id="path1402"
         d="M 153.6908,-444.81239 V 195.09783 H 761.48768 V -444.81239 Z"
         style="color:#000000;display:inline;overflow:visible;visibility:visible;fill:#c1490f;fill-opacity:1;fill-rule:nonzero;stroke:none;stroke-width:1.13559413;marker:none;enable-background:accumulate"
         inkscape:connector-curvature="0" />
      <path
         d="m 781.48768,179.19523 v -624.00762 h -20 v 624.00762 z"
         style="font-style:normal;font-variant:normal;font-weight:bold;font-stretch:normal;font-size:20px;line-height:113.46729994%;font-family:'Serreria Sobria';-inkscape-font-specification:'Serreria Sobria Bold';letter-spacing:0.72886288px;word-spacing:0px;fill:#dfc48f;fill-opacity:1;stroke:none;stroke-width:1.7365576"
         id="path1949"
         inkscape:connector-curvature="0" />
    </g>
    <g
       transform="matrix(15.953273,0,0,15.953273,-376.70711,-680.02263)"
       style="color:#000000;font-style:normal;font-weight:bold;font-size:40px;line-height:125%;font-family:'Times New Roman';-inkscape-font-specification:'Sans Bold';letter-spacing:0px;word-spacing:0px;display:inline;overflow:visible;visibility:visible;fill:#1d150d;fill-opacity:1;fill-rule:nonzero;stroke:none;stroke-width:0.70605785;marker:none;enable-background:accumulate"
       id="flowRoot6362">
      <path
         d="m 51.83625,17.799464 c -3.4,0 -6.56,1 -8.96,2.76 -2.4,1.72 -4.08,4.28 -4.08,7.24 0,3.04 1.48,5.72 4.04,7.12 2.28,1.32 5.28,1.8 8.96,1.88 v 0.04 c 3.84,0 6.56,0.52 8.04,1.36 1.44,0.8 1.96,1.64 1.96,3.6 0,1.6 -0.68,2.92 -2.24,4.04 -1.6,1.16 -4.2,1.96 -7.76,1.96 -4.8,0 -7.72,-1.84 -9.08,-4 l -3.92,1.12 c 1.92,3.92 6.6,6.88 13,6.88 4.16,0 7.6,-0.92 10.08,-2.68 2.44,-1.76 3.92,-4.44 3.92,-7.32 0,-3 -1.48,-5.68 -4,-7.08 -2.32,-1.32 -5.32,-1.8 -9,-1.88 v -0.04 c -3.84,0 -6.56,-0.52 -8,-1.36 -1.48,-0.8 -2,-1.64 -2,-3.64 0,-1.44 0.8,-2.84 2.44,-4 1.6,-1.2 3.96,-2 6.6,-2 4.16,0 6.6,1.04 8.04,2.36 0.48,0.44 0.88,0.92 1.16,1.48 l 3.92,-1.12 c -0.56,-1.2 -1.32,-2.36 -2.4,-3.36 -2.36,-2.08 -5.88,-3.36 -10.72,-3.36 z"
         style="color:#000000;font-variant:normal;font-stretch:normal;font-family:'Serreria Sobria';-inkscape-font-specification:'Serreria Sobria Bold';display:inline;overflow:visible;visibility:visible;fill:#1d150d;marker:none;enable-background:accumulate"
         id="path6567"
         inkscape:connector-curvature="0" />
    </g>
  </g>
</svg>
